%YAML 1.1
%TAG !u! tag:unity3d.com,2011:
--- !u!1045 &1
EditorBuildSettings:
  m_ObjectHideFlags: 0
  serializedVersion: 2
  m_Scenes:
  - enabled: 1
    path: Assets/Scenes/Menu.unity
    guid: 45403fa4b03d6474c8a502f7989ff568
  - enabled: 1
    path: Assets/Scenes/World.unity
    guid: 5dc8bec274968154bafade8e3fd59214
  - enabled: 1
    path: Assets/Scenes/Survival.unity
    guid: f37395e8791d86240beefb979ba416f3
  - enabled: 1
    path: Assets/Scenes/Battle.unity
    guid: b3e6c508352b47a4fa2a604348bd4c26
  - enabled: 0
    path: Assets/Scenes/Soccer.unity
    guid: d332a7dfe60cd84459376fed9945918f
  m_configObjects:
    com.unity.input.settings: {fileID: 11400000, guid: 98338f7a5b2a42f4e96efffa156353fd, type: 2}
  m_UseUCBPForAssetBundles: 0
